module mensajero

go 1.17

require (
	github.com/golang/protobuf v1.5.2 // indirect
	golang.org/x/net v0.0.0-20220425223048-2871e0cb64e4 // indirect
	golang.org/x/sys v0.0.0-20220422013727-9388b58f7150 // indirect
	golang.org/x/text v0.3.7 // indirect
	google.golang.org/genproto v0.0.0-20220426171045-31bebdecfb46 // indirect
	google.golang.org/grpc v1.46.0 // indirect
	google.golang.org/protobuf v1.28.0 // indirect
)
